[
    {
        "page": 1,
        "pages": 2,
        "per_page": 50,
        "total": 61,
        "sourceid": "2",
        "sourcename": "World Development Indicators",
        "lastupdated": "2021-11-23"
    },
    [
        {
            "indicator": {
                "id": "SL.TLF.TOTL.FE.ZS",
                "value": "Labor force, female (% of total labor force)"
            },
            "country": {
                "id": "YE",
                "value": "Yemen, Rep."
            },
            "countryiso3code": "YEM",
            "date": "2020",
            "value": null,
            "unit": "",
            "obs_status": "",
            "decimal": 1
        },
        {
            "indicator": {
                "id": "SL.TLF.TOTL.FE.ZS",
                "value": "Labor force, female (% of total labor force)"
            },
            "country": {
                "id": "YE",
                "value": "Yemen, Rep."
            },
            "countryiso3code": "YEM",
            "date": "2019",
            "value": 7.88105574354659,
            "unit": "",
            "obs_status": "",
            "decimal": 1
        },
        {
            "indicator": {
                "id": "SL.TLF.TOTL.FE.ZS",
                "value": "Labor force, female (% of total labor force)"
            },
            "country": {
                "id": "YE",
                "value": "Yemen, Rep."
            },
            "countryiso3code": "YEM",
            "date": "2018",
            "value": 7.89530031270493,
            "unit": "",
            "obs_status": "",
            "decimal": 1
        },
        {
            "indicator": {
                "id": "SL.TLF.TOTL.FE.ZS",
                "value": "Labor force, female (% of total labor force)"
            },
            "country": {
                "id": "YE",
                "value": "Yemen, Rep."
            },
            "countryiso3code": "YEM",
            "date": "2017",
            "value": 7.91395382741138,
            "unit": "",
            "obs_status": "",
            "decimal": 1
        },
        {
            "indicator": {
                "id": "SL.TLF.TOTL.FE.ZS",
                "value": "Labor force, female (% of total labor force)"
            },
            "country": {
                "id": "YE",
                "value": "Yemen, Rep."
            },
            "countryiso3code": "YEM",
            "date": "2016",
            "value": 7.98555964968537,
            "unit": "",
            "obs_status": "",
            "decimal": 1
        },
        {
            "indicator": {
                "id": "SL.TLF.TOTL.FE.ZS",
                "value": "Labor force, female (% of total labor force)"
            },
            "country": {
                "id": "YE",
                "value": "Yemen, Rep."
            },
            "countryiso3code": "YEM",
            "date": "2015",
            "value": 8.06938770984221,
            "unit": "",
            "obs_status": "",
            "decimal": 1
        },
        {
            "indicator": {
                "id": "SL.TLF.TOTL.FE.ZS",
                "value": "Labor force, female (% of total labor force)"
            },
            "country": {
                "id": "YE",
                "value": "Yemen, Rep."
            },
            "countryiso3code": "YEM",
            "date": "2014",
            "value": 8.24040322940363,
            "unit": "",
            "obs_status": "",
            "decimal": 1
        },
        {
            "indicator": {
                "id": "SL.TLF.TOTL.FE.ZS",
                "value": "Labor force, female (% of total labor force)"
            },
            "country": {
                "id": "YE",
                "value": "Yemen, Rep."
            },
            "countryiso3code": "YEM",
            "date": "2013",
            "value": 9.20539160921733,
            "unit": "",
            "obs_status": "",
            "decimal": 1
        },
        {
            "indicator": {
                "id": "SL.TLF.TOTL.FE.ZS",
                "value": "Labor force, female (% of total labor force)"
            },
            "country": {
                "id": "YE",
                "value": "Yemen, Rep."
            },
            "countryiso3code": "YEM",
            "date": "2012",
            "value": 10.2615305428952,
            "unit": "",
            "obs_status": "",
            "decimal": 1
        },
        {
            "indicator": {
                "id": "SL.TLF.TOTL.FE.ZS",
                "value": "Labor force, female (% of total labor force)"
            },
            "country": {
                "id": "YE",
                "value": "Yemen, Rep."
            },
            "countryiso3code": "YEM",
            "date": "2011",
            "value": 11.4436776005862,
            "unit": "",
            "obs_status": "",
            "decimal": 1
        },
        {
            "indicator": {
                "id": "SL.TLF.TOTL.FE.ZS",
                "value": "Labor force, female (% of total labor force)"
            },
            "country": {
                "id": "YE",
                "value": "Yemen, Rep."
            },
            "countryiso3code": "YEM",
            "date": "2010",
            "value": 12.7413899427022,
            "unit": "",
            "obs_status": "",
            "decimal": 1
        },
        {
            "indicator": {
                "id": "SL.TLF.TOTL.FE.ZS",
                "value": "Labor force, female (% of total labor force)"
            },
            "country": {
                "id": "YE",
                "value": "Yemen, Rep."
            },
            "countryiso3code": "YEM",
            "date": "2009",
            "value": 13.5603277906434,
            "unit": "",
            "obs_status": "",
            "decimal": 1
        },
        {
            "indicator": {
                "id": "SL.TLF.TOTL.FE.ZS",
                "value": "Labor force, female (% of total labor force)"
            },
            "country": {
                "id": "YE",
                "value": "Yemen, Rep."
            },
            "countryiso3code": "YEM",
            "date": "2008",
            "value": 14.4032585800665,
            "unit": "",
            "obs_status": "",
            "decimal": 1
        },
        {
            "indicator": {
                "id": "SL.TLF.TOTL.FE.ZS",
                "value": "Labor force, female (% of total labor force)"
            },
            "country": {
                "id": "YE",
                "value": "Yemen, Rep."
            },
            "countryiso3code": "YEM",
            "date": "2007",
            "value": 15.2616023205784,
            "unit": "",
            "obs_status": "",
            "decimal": 1
        },
        {
            "indicator": {
                "id": "SL.TLF.TOTL.FE.ZS",
                "value": "Labor force, female (% of total labor force)"
            },
            "country": {
                "id": "YE",
                "value": "Yemen, Rep."
            },
            "countryiso3code": "YEM",
            "date": "2006",
            "value": 16.1654157811832,
            "unit": "",
            "obs_status": "",
            "decimal": 1
        },
        {
            "indicator": {
                "id": "SL.TLF.TOTL.FE.ZS",
                "value": "Labor force, female (% of total labor force)"
            },
            "country": {
                "id": "YE",
                "value": "Yemen, Rep."
            },
            "countryiso3code": "YEM",
            "date": "2005",
            "value": 17.1093899767069,
            "unit": "",
            "obs_status": "",
            "decimal": 1
        },
        {
            "indicator": {
                "id": "SL.TLF.TOTL.FE.ZS",
                "value": "Labor force, female (% of total labor force)"
            },
            "country": {
                "id": "YE",
                "value": "Yemen, Rep."
            },
            "countryiso3code": "YEM",
            "date": "2004",
            "value": 18.0714267603191,
            "unit": "",
            "obs_status": "",
            "decimal": 1
        },
        {
            "indicator": {
                "id": "SL.TLF.TOTL.FE.ZS",
                "value": "Labor force, female (% of total labor force)"
            },
            "country": {
                "id": "YE",
                "value": "Yemen, Rep."
            },
            "countryiso3code": "YEM",
            "date": "2003",
            "value": 19.0692713570263,
            "unit": "",
            "obs_status": "",
            "decimal": 1
        },
        {
            "indicator": {
                "id": "SL.TLF.TOTL.FE.ZS",
                "value": "Labor force, female (% of total labor force)"
            },
            "country": {
                "id": "YE",
                "value": "Yemen, Rep."
            },
            "countryiso3code": "YEM",
            "date": "2002",
            "value": 20.0997279464414,
            "unit": "",
            "obs_status": "",
            "decimal": 1
        },
        {
            "indicator": {
                "id": "SL.TLF.TOTL.FE.ZS",
                "value": "Labor force, female (% of total labor force)"
            },
            "country": {
                "id": "YE",
                "value": "Yemen, Rep."
            },
            "countryiso3code": "YEM",
            "date": "2001",
            "value": 21.1377165474285,
            "unit": "",
            "obs_status": "",
            "decimal": 1
        },
        {
            "indicator": {
                "id": "SL.TLF.TOTL.FE.ZS",
                "value": "Labor force, female (% of total labor force)"
            },
            "country": {
                "id": "YE",
                "value": "Yemen, Rep."
            },
            "countryiso3code": "YEM",
            "date": "2000",
            "value": 22.2002476603535,
            "unit": "",
            "obs_status": "",
            "decimal": 1
        },
        {
            "indicator": {
                "id": "SL.TLF.TOTL.FE.ZS",
                "value": "Labor force, female (% of total labor force)"
            },
            "country": {
                "id": "YE",
                "value": "Yemen, Rep."
            },
            "countryiso3code": "YEM",
            "date": "1999",
            "value": 23.2490463017126,
            "unit": "",
            "obs_status": "",
            "decimal": 1
        },
        {
            "indicator": {
                "id": "SL.TLF.TOTL.FE.ZS",
                "value": "Labor force, female (% of total labor force)"
            },
            "country": {
                "id": "YE",
                "value": "Yemen, Rep."
            },
            "countryiso3code": "YEM",
            "date": "1998",
            "value": 22.2304432653533,
            "unit": "",
            "obs_status": "",
            "decimal": 1
        },
        {
            "indicator": {
                "id": "SL.TLF.TOTL.FE.ZS",
                "value": "Labor force, female (% of total labor force)"
            },
            "country": {
                "id": "YE",
                "value": "Yemen, Rep."
            },
            "countryiso3code": "YEM",
            "date": "1997",
            "value": 21.2376416210578,
            "unit": "",
            "obs_status": "",
            "decimal": 1
        },
        {
            "indicator": {
                "id": "SL.TLF.TOTL.FE.ZS",
                "value": "Labor force, female (% of total labor force)"
            },
            "country": {
                "id": "YE",
                "value": "Yemen, Rep."
            },
            "countryiso3code": "YEM",
            "date": "1996",
            "value": 20.2968561785342,
            "unit": "",
            "obs_status": "",
            "decimal": 1
        },
        {
            "indicator": {
                "id": "SL.TLF.TOTL.FE.ZS",
                "value": "Labor force, female (% of total labor force)"
            },
            "country": {
                "id": "YE",
                "value": "Yemen, Rep."
            },
            "countryiso3code": "YEM",
            "date": "1995",
            "value": 19.4355673889963,
            "unit": "",
            "obs_status": "",
            "decimal": 1
        },
        {
            "indicator": {
                "id": "SL.TLF.TOTL.FE.ZS",
                "value": "Labor force, female (% of total labor force)"
            },
            "country": {
                "id": "YE",
                "value": "Yemen, Rep."
            },
            "countryiso3code": "YEM",
            "date": "1994",
            "value": 18.7803990703575,
            "unit": "",
            "obs_status": "",
            "decimal": 1
        },
        {
            "indicator": {
                "id": "SL.TLF.TOTL.FE.ZS",
                "value": "Labor force, female (% of total labor force)"
            },
            "country": {
                "id": "YE",
                "value": "Yemen, Rep."
            },
            "countryiso3code": "YEM",
            "date": "1993",
            "value": 18.9499434133054,
            "unit": "",
            "obs_status": "",
            "decimal": 1
        },
        {
            "indicator": {
                "id": "SL.TLF.TOTL.FE.ZS",
                "value": "Labor force, female (% of total labor force)"
            },
            "country": {
                "id": "YE",
                "value": "Yemen, Rep."
            },
            "countryiso3code": "YEM",
            "date": "1992",
            "value": 19.3296272912162,
            "unit": "",
            "obs_status": "",
            "decimal": 1
        },
        {
            "indicator": {
                "id": "SL.TLF.TOTL.FE.ZS",
                "value": "Labor force, female (% of total labor force)"
            },
            "country": {
                "id": "YE",
                "value": "Yemen, Rep."
            },
            "countryiso3code": "YEM",
            "date": "1991",
            "value": 19.6118410400251,
            "unit": "",
            "obs_status": "",
            "decimal": 1
        },
        {
            "indicator": {
                "id": "SL.TLF.TOTL.FE.ZS",
                "value": "Labor force, female (% of total labor force)"
            },
            "country": {
                "id": "YE",
                "value": "Yemen, Rep."
            },
            "countryiso3code": "YEM",
            "date": "1990",
            "value": 19.9724768532434,
            "unit": "",
            "obs_status": "",
            "decimal": 1
        },
        {
            "indicator": {
                "id": "SL.TLF.TOTL.FE.ZS",
                "value": "Labor force, female (% of total labor force)"
            },
            "country": {
                "id": "YE",
                "value": "Yemen, Rep."
            },
            "countryiso3code": "YEM",
            "date": "1989",
            "value": null,
            "unit": "",
            "obs_status": "",
            "decimal": 1
        },
        {
            "indicator": {
                "id": "SL.TLF.TOTL.FE.ZS",
                "value": "Labor force, female (% of total labor force)"
            },
            "country": {
                "id": "YE",
                "value": "Yemen, Rep."
            },
            "countryiso3code": "YEM",
            "date": "1988",
            "value": null,
            "unit": "",
            "obs_status": "",
            "decimal": 1
        },
        {
            "indicator": {
                "id": "SL.TLF.TOTL.FE.ZS",
                "value": "Labor force, female (% of total labor force)"
            },
            "country": {
                "id": "YE",
                "value": "Yemen, Rep."
            },
            "countryiso3code": "YEM",
            "date": "1987",
            "value": null,
            "unit": "",
            "obs_status": "",
            "decimal": 1
        },
        {
            "indicator": {
                "id": "SL.TLF.TOTL.FE.ZS",
                "value": "Labor force, female (% of total labor force)"
            },
            "country": {
                "id": "YE",
                "value": "Yemen, Rep."
            },
            "countryiso3code": "YEM",
            "date": "1986",
            "value": null,
            "unit": "",
            "obs_status": "",
            "decimal": 1
        },
        {
            "indicator": {
                "id": "SL.TLF.TOTL.FE.ZS",
                "value": "Labor force, female (% of total labor force)"
            },
            "country": {
                "id": "YE",
                "value": "Yemen, Rep."
            },
            "countryiso3code": "YEM",
            "date": "1985",
            "value": null,
            "unit": "",
            "obs_status": "",
            "decimal": 1
        },
        {
            "indicator": {
                "id": "SL.TLF.TOTL.FE.ZS",
                "value": "Labor force, female (% of total labor force)"
            },
            "country": {
                "id": "YE",
                "value": "Yemen, Rep."
            },
            "countryiso3code": "YEM",
            "date": "1984",
            "value": null,
            "unit": "",
            "obs_status": "",
            "decimal": 1
        },
        {
            "indicator": {
                "id": "SL.TLF.TOTL.FE.ZS",
                "value": "Labor force, female (% of total labor force)"
            },
            "country": {
                "id": "YE",
                "value": "Yemen, Rep."
            },
            "countryiso3code": "YEM",
            "date": "1983",
            "value": null,
            "unit": "",
            "obs_status": "",
            "decimal": 1
        },
        {
            "indicator": {
                "id": "SL.TLF.TOTL.FE.ZS",
                "value": "Labor force, female (% of total labor force)"
            },
            "country": {
                "id": "YE",
                "value": "Yemen, Rep."
            },
            "countryiso3code": "YEM",
            "date": "1982",
            "value": null,
            "unit": "",
            "obs_status": "",
            "decimal": 1
        },
        {
            "indicator": {
                "id": "SL.TLF.TOTL.FE.ZS",
                "value": "Labor force, female (% of total labor force)"
            },
            "country": {
                "id": "YE",
                "value": "Yemen, Rep."
            },
            "countryiso3code": "YEM",
            "date": "1981",
            "value": null,
            "unit": "",
            "obs_status": "",
            "decimal": 1
        },
        {
            "indicator": {
                "id": "SL.TLF.TOTL.FE.ZS",
                "value": "Labor force, female (% of total labor force)"
            },
            "country": {
                "id": "YE",
                "value": "Yemen, Rep."
            },
            "countryiso3code": "YEM",
            "date": "1980",
            "value": null,
            "unit": "",
            "obs_status": "",
            "decimal": 1
        },
        {
            "indicator": {
                "id": "SL.TLF.TOTL.FE.ZS",
                "value": "Labor force, female (% of total labor force)"
            },
            "country": {
                "id": "YE",
                "value": "Yemen, Rep."
            },
            "countryiso3code": "YEM",
            "date": "1979",
            "value": null,
            "unit": "",
            "obs_status": "",
            "decimal": 1
        },
        {
            "indicator": {
                "id": "SL.TLF.TOTL.FE.ZS",
                "value": "Labor force, female (% of total labor force)"
            },
            "country": {
                "id": "YE",
                "value": "Yemen, Rep."
            },
            "countryiso3code": "YEM",
            "date": "1978",
            "value": null,
            "unit": "",
            "obs_status": "",
            "decimal": 1
        },
        {
            "indicator": {
                "id": "SL.TLF.TOTL.FE.ZS",
                "value": "Labor force, female (% of total labor force)"
            },
            "country": {
                "id": "YE",
                "value": "Yemen, Rep."
            },
            "countryiso3code": "YEM",
            "date": "1977",
            "value": null,
            "unit": "",
            "obs_status": "",
            "decimal": 1
        },
        {
            "indicator": {
                "id": "SL.TLF.TOTL.FE.ZS",
                "value": "Labor force, female (% of total labor force)"
            },
            "country": {
                "id": "YE",
                "value": "Yemen, Rep."
            },
            "countryiso3code": "YEM",
            "date": "1976",
            "value": null,
            "unit": "",
            "obs_status": "",
            "decimal": 1
        },
        {
            "indicator": {
                "id": "SL.TLF.TOTL.FE.ZS",
                "value": "Labor force, female (% of total labor force)"
            },
            "country": {
                "id": "YE",
                "value": "Yemen, Rep."
            },
            "countryiso3code": "YEM",
            "date": "1975",
            "value": null,
            "unit": "",
            "obs_status": "",
            "decimal": 1
        },
        {
            "indicator": {
                "id": "SL.TLF.TOTL.FE.ZS",
                "value": "Labor force, female (% of total labor force)"
            },
            "country": {
                "id": "YE",
                "value": "Yemen, Rep."
            },
            "countryiso3code": "YEM",
            "date": "1974",
            "value": null,
            "unit": "",
            "obs_status": "",
            "decimal": 1
        },
        {
            "indicator": {
                "id": "SL.TLF.TOTL.FE.ZS",
                "value": "Labor force, female (% of total labor force)"
            },
            "country": {
                "id": "YE",
                "value": "Yemen, Rep."
            },
            "countryiso3code": "YEM",
            "date": "1973",
            "value": null,
            "unit": "",
            "obs_status": "",
            "decimal": 1
        },
        {
            "indicator": {
                "id": "SL.TLF.TOTL.FE.ZS",
                "value": "Labor force, female (% of total labor force)"
            },
            "country": {
                "id": "YE",
                "value": "Yemen, Rep."
            },
            "countryiso3code": "YEM",
            "date": "1972",
            "value": null,
            "unit": "",
            "obs_status": "",
            "decimal": 1
        },
        {
            "indicator": {
                "id": "SL.TLF.TOTL.FE.ZS",
                "value": "Labor force, female (% of total labor force)"
            },
            "country": {
                "id": "YE",
                "value": "Yemen, Rep."
            },
            "countryiso3code": "YEM",
            "date": "1971",
            "value": null,
            "unit": "",
            "obs_status": "",
            "decimal": 1
        }
    ]
]