[
    {
        "page": 1,
        "pages": 2,
        "per_page": 50,
        "total": 61,
        "sourceid": "2",
        "sourcename": "World Development Indicators",
        "lastupdated": "2021-11-23"
    },
    [
        {
            "indicator": {
                "id": "SL.TLF.TOTL.FE.ZS",
                "value": "Labor force, female (% of total labor force)"
            },
            "country": {
                "id": "CN",
                "value": "China"
            },
            "countryiso3code": "CHN",
            "date": "2020",
            "value": null,
            "unit": "",
            "obs_status": "",
            "decimal": 1
        },
        {
            "indicator": {
                "id": "SL.TLF.TOTL.FE.ZS",
                "value": "Labor force, female (% of total labor force)"
            },
            "country": {
                "id": "CN",
                "value": "China"
            },
            "countryiso3code": "CHN",
            "date": "2019",
            "value": 43.6343552927191,
            "unit": "",
            "obs_status": "",
            "decimal": 1
        },
        {
            "indicator": {
                "id": "SL.TLF.TOTL.FE.ZS",
                "value": "Labor force, female (% of total labor force)"
            },
            "country": {
                "id": "CN",
                "value": "China"
            },
            "countryiso3code": "CHN",
            "date": "2018",
            "value": 43.7188299279786,
            "unit": "",
            "obs_status": "",
            "decimal": 1
        },
        {
            "indicator": {
                "id": "SL.TLF.TOTL.FE.ZS",
                "value": "Labor force, female (% of total labor force)"
            },
            "country": {
                "id": "CN",
                "value": "China"
            },
            "countryiso3code": "CHN",
            "date": "2017",
            "value": 43.7997292462391,
            "unit": "",
            "obs_status": "",
            "decimal": 1
        },
        {
            "indicator": {
                "id": "SL.TLF.TOTL.FE.ZS",
                "value": "Labor force, female (% of total labor force)"
            },
            "country": {
                "id": "CN",
                "value": "China"
            },
            "countryiso3code": "CHN",
            "date": "2016",
            "value": 43.8687870810856,
            "unit": "",
            "obs_status": "",
            "decimal": 1
        },
        {
            "indicator": {
                "id": "SL.TLF.TOTL.FE.ZS",
                "value": "Labor force, female (% of total labor force)"
            },
            "country": {
                "id": "CN",
                "value": "China"
            },
            "countryiso3code": "CHN",
            "date": "2015",
            "value": 43.9206950694526,
            "unit": "",
            "obs_status": "",
            "decimal": 1
        },
        {
            "indicator": {
                "id": "SL.TLF.TOTL.FE.ZS",
                "value": "Labor force, female (% of total labor force)"
            },
            "country": {
                "id": "CN",
                "value": "China"
            },
            "countryiso3code": "CHN",
            "date": "2014",
            "value": 43.9577737000049,
            "unit": "",
            "obs_status": "",
            "decimal": 1
        },
        {
            "indicator": {
                "id": "SL.TLF.TOTL.FE.ZS",
                "value": "Labor force, female (% of total labor force)"
            },
            "country": {
                "id": "CN",
                "value": "China"
            },
            "countryiso3code": "CHN",
            "date": "2013",
            "value": 43.9784050308975,
            "unit": "",
            "obs_status": "",
            "decimal": 1
        },
        {
            "indicator": {
                "id": "SL.TLF.TOTL.FE.ZS",
                "value": "Labor force, female (% of total labor force)"
            },
            "country": {
                "id": "CN",
                "value": "China"
            },
            "countryiso3code": "CHN",
            "date": "2012",
            "value": 44.0030275055501,
            "unit": "",
            "obs_status": "",
            "decimal": 1
        },
        {
            "indicator": {
                "id": "SL.TLF.TOTL.FE.ZS",
                "value": "Labor force, female (% of total labor force)"
            },
            "country": {
                "id": "CN",
                "value": "China"
            },
            "countryiso3code": "CHN",
            "date": "2011",
            "value": 44.0388557575396,
            "unit": "",
            "obs_status": "",
            "decimal": 1
        },
        {
            "indicator": {
                "id": "SL.TLF.TOTL.FE.ZS",
                "value": "Labor force, female (% of total labor force)"
            },
            "country": {
                "id": "CN",
                "value": "China"
            },
            "countryiso3code": "CHN",
            "date": "2010",
            "value": 44.079056138679,
            "unit": "",
            "obs_status": "",
            "decimal": 1
        },
        {
            "indicator": {
                "id": "SL.TLF.TOTL.FE.ZS",
                "value": "Labor force, female (% of total labor force)"
            },
            "country": {
                "id": "CN",
                "value": "China"
            },
            "countryiso3code": "CHN",
            "date": "2009",
            "value": 44.1980701221571,
            "unit": "",
            "obs_status": "",
            "decimal": 1
        },
        {
            "indicator": {
                "id": "SL.TLF.TOTL.FE.ZS",
                "value": "Labor force, female (% of total labor force)"
            },
            "country": {
                "id": "CN",
                "value": "China"
            },
            "countryiso3code": "CHN",
            "date": "2008",
            "value": 44.3052600421357,
            "unit": "",
            "obs_status": "",
            "decimal": 1
        },
        {
            "indicator": {
                "id": "SL.TLF.TOTL.FE.ZS",
                "value": "Labor force, female (% of total labor force)"
            },
            "country": {
                "id": "CN",
                "value": "China"
            },
            "countryiso3code": "CHN",
            "date": "2007",
            "value": 44.4166186385106,
            "unit": "",
            "obs_status": "",
            "decimal": 1
        },
        {
            "indicator": {
                "id": "SL.TLF.TOTL.FE.ZS",
                "value": "Labor force, female (% of total labor force)"
            },
            "country": {
                "id": "CN",
                "value": "China"
            },
            "countryiso3code": "CHN",
            "date": "2006",
            "value": 44.5234908680654,
            "unit": "",
            "obs_status": "",
            "decimal": 1
        },
        {
            "indicator": {
                "id": "SL.TLF.TOTL.FE.ZS",
                "value": "Labor force, female (% of total labor force)"
            },
            "country": {
                "id": "CN",
                "value": "China"
            },
            "countryiso3code": "CHN",
            "date": "2005",
            "value": 44.634333098471,
            "unit": "",
            "obs_status": "",
            "decimal": 1
        },
        {
            "indicator": {
                "id": "SL.TLF.TOTL.FE.ZS",
                "value": "Labor force, female (% of total labor force)"
            },
            "country": {
                "id": "CN",
                "value": "China"
            },
            "countryiso3code": "CHN",
            "date": "2004",
            "value": 44.7454642473624,
            "unit": "",
            "obs_status": "",
            "decimal": 1
        },
        {
            "indicator": {
                "id": "SL.TLF.TOTL.FE.ZS",
                "value": "Labor force, female (% of total labor force)"
            },
            "country": {
                "id": "CN",
                "value": "China"
            },
            "countryiso3code": "CHN",
            "date": "2003",
            "value": 44.8392401162624,
            "unit": "",
            "obs_status": "",
            "decimal": 1
        },
        {
            "indicator": {
                "id": "SL.TLF.TOTL.FE.ZS",
                "value": "Labor force, female (% of total labor force)"
            },
            "country": {
                "id": "CN",
                "value": "China"
            },
            "countryiso3code": "CHN",
            "date": "2002",
            "value": 44.9247113703791,
            "unit": "",
            "obs_status": "",
            "decimal": 1
        },
        {
            "indicator": {
                "id": "SL.TLF.TOTL.FE.ZS",
                "value": "Labor force, female (% of total labor force)"
            },
            "country": {
                "id": "CN",
                "value": "China"
            },
            "countryiso3code": "CHN",
            "date": "2001",
            "value": 45.0055046243445,
            "unit": "",
            "obs_status": "",
            "decimal": 1
        },
        {
            "indicator": {
                "id": "SL.TLF.TOTL.FE.ZS",
                "value": "Labor force, female (% of total labor force)"
            },
            "country": {
                "id": "CN",
                "value": "China"
            },
            "countryiso3code": "CHN",
            "date": "2000",
            "value": 45.092067083728,
            "unit": "",
            "obs_status": "",
            "decimal": 1
        },
        {
            "indicator": {
                "id": "SL.TLF.TOTL.FE.ZS",
                "value": "Labor force, female (% of total labor force)"
            },
            "country": {
                "id": "CN",
                "value": "China"
            },
            "countryiso3code": "CHN",
            "date": "1999",
            "value": 45.0820879980586,
            "unit": "",
            "obs_status": "",
            "decimal": 1
        },
        {
            "indicator": {
                "id": "SL.TLF.TOTL.FE.ZS",
                "value": "Labor force, female (% of total labor force)"
            },
            "country": {
                "id": "CN",
                "value": "China"
            },
            "countryiso3code": "CHN",
            "date": "1998",
            "value": 45.0795612168737,
            "unit": "",
            "obs_status": "",
            "decimal": 1
        },
        {
            "indicator": {
                "id": "SL.TLF.TOTL.FE.ZS",
                "value": "Labor force, female (% of total labor force)"
            },
            "country": {
                "id": "CN",
                "value": "China"
            },
            "countryiso3code": "CHN",
            "date": "1997",
            "value": 45.0849582700757,
            "unit": "",
            "obs_status": "",
            "decimal": 1
        },
        {
            "indicator": {
                "id": "SL.TLF.TOTL.FE.ZS",
                "value": "Labor force, female (% of total labor force)"
            },
            "country": {
                "id": "CN",
                "value": "China"
            },
            "countryiso3code": "CHN",
            "date": "1996",
            "value": 45.0903355665338,
            "unit": "",
            "obs_status": "",
            "decimal": 1
        },
        {
            "indicator": {
                "id": "SL.TLF.TOTL.FE.ZS",
                "value": "Labor force, female (% of total labor force)"
            },
            "country": {
                "id": "CN",
                "value": "China"
            },
            "countryiso3code": "CHN",
            "date": "1995",
            "value": 45.101462213155,
            "unit": "",
            "obs_status": "",
            "decimal": 1
        },
        {
            "indicator": {
                "id": "SL.TLF.TOTL.FE.ZS",
                "value": "Labor force, female (% of total labor force)"
            },
            "country": {
                "id": "CN",
                "value": "China"
            },
            "countryiso3code": "CHN",
            "date": "1994",
            "value": 45.1160907540965,
            "unit": "",
            "obs_status": "",
            "decimal": 1
        },
        {
            "indicator": {
                "id": "SL.TLF.TOTL.FE.ZS",
                "value": "Labor force, female (% of total labor force)"
            },
            "country": {
                "id": "CN",
                "value": "China"
            },
            "countryiso3code": "CHN",
            "date": "1993",
            "value": 45.1339545204905,
            "unit": "",
            "obs_status": "",
            "decimal": 1
        },
        {
            "indicator": {
                "id": "SL.TLF.TOTL.FE.ZS",
                "value": "Labor force, female (% of total labor force)"
            },
            "country": {
                "id": "CN",
                "value": "China"
            },
            "countryiso3code": "CHN",
            "date": "1992",
            "value": 45.1506647364604,
            "unit": "",
            "obs_status": "",
            "decimal": 1
        },
        {
            "indicator": {
                "id": "SL.TLF.TOTL.FE.ZS",
                "value": "Labor force, female (% of total labor force)"
            },
            "country": {
                "id": "CN",
                "value": "China"
            },
            "countryiso3code": "CHN",
            "date": "1991",
            "value": 45.1695160271608,
            "unit": "",
            "obs_status": "",
            "decimal": 1
        },
        {
            "indicator": {
                "id": "SL.TLF.TOTL.FE.ZS",
                "value": "Labor force, female (% of total labor force)"
            },
            "country": {
                "id": "CN",
                "value": "China"
            },
            "countryiso3code": "CHN",
            "date": "1990",
            "value": 45.174142455267,
            "unit": "",
            "obs_status": "",
            "decimal": 1
        },
        {
            "indicator": {
                "id": "SL.TLF.TOTL.FE.ZS",
                "value": "Labor force, female (% of total labor force)"
            },
            "country": {
                "id": "CN",
                "value": "China"
            },
            "countryiso3code": "CHN",
            "date": "1989",
            "value": null,
            "unit": "",
            "obs_status": "",
            "decimal": 1
        },
        {
            "indicator": {
                "id": "SL.TLF.TOTL.FE.ZS",
                "value": "Labor force, female (% of total labor force)"
            },
            "country": {
                "id": "CN",
                "value": "China"
            },
            "countryiso3code": "CHN",
            "date": "1988",
            "value": null,
            "unit": "",
            "obs_status": "",
            "decimal": 1
        },
        {
            "indicator": {
                "id": "SL.TLF.TOTL.FE.ZS",
                "value": "Labor force, female (% of total labor force)"
            },
            "country": {
                "id": "CN",
                "value": "China"
            },
            "countryiso3code": "CHN",
            "date": "1987",
            "value": null,
            "unit": "",
            "obs_status": "",
            "decimal": 1
        },
        {
            "indicator": {
                "id": "SL.TLF.TOTL.FE.ZS",
                "value": "Labor force, female (% of total labor force)"
            },
            "country": {
                "id": "CN",
                "value": "China"
            },
            "countryiso3code": "CHN",
            "date": "1986",
            "value": null,
            "unit": "",
            "obs_status": "",
            "decimal": 1
        },
        {
            "indicator": {
                "id": "SL.TLF.TOTL.FE.ZS",
                "value": "Labor force, female (% of total labor force)"
            },
            "country": {
                "id": "CN",
                "value": "China"
            },
            "countryiso3code": "CHN",
            "date": "1985",
            "value": null,
            "unit": "",
            "obs_status": "",
            "decimal": 1
        },
        {
            "indicator": {
                "id": "SL.TLF.TOTL.FE.ZS",
                "value": "Labor force, female (% of total labor force)"
            },
            "country": {
                "id": "CN",
                "value": "China"
            },
            "countryiso3code": "CHN",
            "date": "1984",
            "value": null,
            "unit": "",
            "obs_status": "",
            "decimal": 1
        },
        {
            "indicator": {
                "id": "SL.TLF.TOTL.FE.ZS",
                "value": "Labor force, female (% of total labor force)"
            },
            "country": {
                "id": "CN",
                "value": "China"
            },
            "countryiso3code": "CHN",
            "date": "1983",
            "value": null,
            "unit": "",
            "obs_status": "",
            "decimal": 1
        },
        {
            "indicator": {
                "id": "SL.TLF.TOTL.FE.ZS",
                "value": "Labor force, female (% of total labor force)"
            },
            "country": {
                "id": "CN",
                "value": "China"
            },
            "countryiso3code": "CHN",
            "date": "1982",
            "value": null,
            "unit": "",
            "obs_status": "",
            "decimal": 1
        },
        {
            "indicator": {
                "id": "SL.TLF.TOTL.FE.ZS",
                "value": "Labor force, female (% of total labor force)"
            },
            "country": {
                "id": "CN",
                "value": "China"
            },
            "countryiso3code": "CHN",
            "date": "1981",
            "value": null,
            "unit": "",
            "obs_status": "",
            "decimal": 1
        },
        {
            "indicator": {
                "id": "SL.TLF.TOTL.FE.ZS",
                "value": "Labor force, female (% of total labor force)"
            },
            "country": {
                "id": "CN",
                "value": "China"
            },
            "countryiso3code": "CHN",
            "date": "1980",
            "value": null,
            "unit": "",
            "obs_status": "",
            "decimal": 1
        },
        {
            "indicator": {
                "id": "SL.TLF.TOTL.FE.ZS",
                "value": "Labor force, female (% of total labor force)"
            },
            "country": {
                "id": "CN",
                "value": "China"
            },
            "countryiso3code": "CHN",
            "date": "1979",
            "value": null,
            "unit": "",
            "obs_status": "",
            "decimal": 1
        },
        {
            "indicator": {
                "id": "SL.TLF.TOTL.FE.ZS",
                "value": "Labor force, female (% of total labor force)"
            },
            "country": {
                "id": "CN",
                "value": "China"
            },
            "countryiso3code": "CHN",
            "date": "1978",
            "value": null,
            "unit": "",
            "obs_status": "",
            "decimal": 1
        },
        {
            "indicator": {
                "id": "SL.TLF.TOTL.FE.ZS",
                "value": "Labor force, female (% of total labor force)"
            },
            "country": {
                "id": "CN",
                "value": "China"
            },
            "countryiso3code": "CHN",
            "date": "1977",
            "value": null,
            "unit": "",
            "obs_status": "",
            "decimal": 1
        },
        {
            "indicator": {
                "id": "SL.TLF.TOTL.FE.ZS",
                "value": "Labor force, female (% of total labor force)"
            },
            "country": {
                "id": "CN",
                "value": "China"
            },
            "countryiso3code": "CHN",
            "date": "1976",
            "value": null,
            "unit": "",
            "obs_status": "",
            "decimal": 1
        },
        {
            "indicator": {
                "id": "SL.TLF.TOTL.FE.ZS",
                "value": "Labor force, female (% of total labor force)"
            },
            "country": {
                "id": "CN",
                "value": "China"
            },
            "countryiso3code": "CHN",
            "date": "1975",
            "value": null,
            "unit": "",
            "obs_status": "",
            "decimal": 1
        },
        {
            "indicator": {
                "id": "SL.TLF.TOTL.FE.ZS",
                "value": "Labor force, female (% of total labor force)"
            },
            "country": {
                "id": "CN",
                "value": "China"
            },
            "countryiso3code": "CHN",
            "date": "1974",
            "value": null,
            "unit": "",
            "obs_status": "",
            "decimal": 1
        },
        {
            "indicator": {
                "id": "SL.TLF.TOTL.FE.ZS",
                "value": "Labor force, female (% of total labor force)"
            },
            "country": {
                "id": "CN",
                "value": "China"
            },
            "countryiso3code": "CHN",
            "date": "1973",
            "value": null,
            "unit": "",
            "obs_status": "",
            "decimal": 1
        },
        {
            "indicator": {
                "id": "SL.TLF.TOTL.FE.ZS",
                "value": "Labor force, female (% of total labor force)"
            },
            "country": {
                "id": "CN",
                "value": "China"
            },
            "countryiso3code": "CHN",
            "date": "1972",
            "value": null,
            "unit": "",
            "obs_status": "",
            "decimal": 1
        },
        {
            "indicator": {
                "id": "SL.TLF.TOTL.FE.ZS",
                "value": "Labor force, female (% of total labor force)"
            },
            "country": {
                "id": "CN",
                "value": "China"
            },
            "countryiso3code": "CHN",
            "date": "1971",
            "value": null,
            "unit": "",
            "obs_status": "",
            "decimal": 1
        }
    ]
]