[
    {
        "page": 1,
        "pages": 2,
        "per_page": 50,
        "total": 61,
        "sourceid": "2",
        "sourcename": "World Development Indicators",
        "lastupdated": "2021-11-23"
    },
    [
        {
            "indicator": {
                "id": "SL.TLF.TOTL.FE.ZS",
                "value": "Labor force, female (% of total labor force)"
            },
            "country": {
                "id": "GB",
                "value": "United Kingdom"
            },
            "countryiso3code": "GBR",
            "date": "2020",
            "value": null,
            "unit": "",
            "obs_status": "",
            "decimal": 1
        },
        {
            "indicator": {
                "id": "SL.TLF.TOTL.FE.ZS",
                "value": "Labor force, female (% of total labor force)"
            },
            "country": {
                "id": "GB",
                "value": "United Kingdom"
            },
            "countryiso3code": "GBR",
            "date": "2019",
            "value": 47.041817331391,
            "unit": "",
            "obs_status": "",
            "decimal": 1
        },
        {
            "indicator": {
                "id": "SL.TLF.TOTL.FE.ZS",
                "value": "Labor force, female (% of total labor force)"
            },
            "country": {
                "id": "GB",
                "value": "United Kingdom"
            },
            "countryiso3code": "GBR",
            "date": "2018",
            "value": 46.8089320622956,
            "unit": "",
            "obs_status": "",
            "decimal": 1
        },
        {
            "indicator": {
                "id": "SL.TLF.TOTL.FE.ZS",
                "value": "Labor force, female (% of total labor force)"
            },
            "country": {
                "id": "GB",
                "value": "United Kingdom"
            },
            "countryiso3code": "GBR",
            "date": "2017",
            "value": 46.7615218107371,
            "unit": "",
            "obs_status": "",
            "decimal": 1
        },
        {
            "indicator": {
                "id": "SL.TLF.TOTL.FE.ZS",
                "value": "Labor force, female (% of total labor force)"
            },
            "country": {
                "id": "GB",
                "value": "United Kingdom"
            },
            "countryiso3code": "GBR",
            "date": "2016",
            "value": 46.5359043735457,
            "unit": "",
            "obs_status": "",
            "decimal": 1
        },
        {
            "indicator": {
                "id": "SL.TLF.TOTL.FE.ZS",
                "value": "Labor force, female (% of total labor force)"
            },
            "country": {
                "id": "GB",
                "value": "United Kingdom"
            },
            "countryiso3code": "GBR",
            "date": "2015",
            "value": 46.4571476271491,
            "unit": "",
            "obs_status": "",
            "decimal": 1
        },
        {
            "indicator": {
                "id": "SL.TLF.TOTL.FE.ZS",
                "value": "Labor force, female (% of total labor force)"
            },
            "country": {
                "id": "GB",
                "value": "United Kingdom"
            },
            "countryiso3code": "GBR",
            "date": "2014",
            "value": 46.4106377144981,
            "unit": "",
            "obs_status": "",
            "decimal": 1
        },
        {
            "indicator": {
                "id": "SL.TLF.TOTL.FE.ZS",
                "value": "Labor force, female (% of total labor force)"
            },
            "country": {
                "id": "GB",
                "value": "United Kingdom"
            },
            "countryiso3code": "GBR",
            "date": "2013",
            "value": 46.2732569796015,
            "unit": "",
            "obs_status": "",
            "decimal": 1
        },
        {
            "indicator": {
                "id": "SL.TLF.TOTL.FE.ZS",
                "value": "Labor force, female (% of total labor force)"
            },
            "country": {
                "id": "GB",
                "value": "United Kingdom"
            },
            "countryiso3code": "GBR",
            "date": "2012",
            "value": 46.1234852803898,
            "unit": "",
            "obs_status": "",
            "decimal": 1
        },
        {
            "indicator": {
                "id": "SL.TLF.TOTL.FE.ZS",
                "value": "Labor force, female (% of total labor force)"
            },
            "country": {
                "id": "GB",
                "value": "United Kingdom"
            },
            "countryiso3code": "GBR",
            "date": "2011",
            "value": 46.115971086974,
            "unit": "",
            "obs_status": "",
            "decimal": 1
        },
        {
            "indicator": {
                "id": "SL.TLF.TOTL.FE.ZS",
                "value": "Labor force, female (% of total labor force)"
            },
            "country": {
                "id": "GB",
                "value": "United Kingdom"
            },
            "countryiso3code": "GBR",
            "date": "2010",
            "value": 46.0275544210646,
            "unit": "",
            "obs_status": "",
            "decimal": 1
        },
        {
            "indicator": {
                "id": "SL.TLF.TOTL.FE.ZS",
                "value": "Labor force, female (% of total labor force)"
            },
            "country": {
                "id": "GB",
                "value": "United Kingdom"
            },
            "countryiso3code": "GBR",
            "date": "2009",
            "value": 45.9552272801121,
            "unit": "",
            "obs_status": "",
            "decimal": 1
        },
        {
            "indicator": {
                "id": "SL.TLF.TOTL.FE.ZS",
                "value": "Labor force, female (% of total labor force)"
            },
            "country": {
                "id": "GB",
                "value": "United Kingdom"
            },
            "countryiso3code": "GBR",
            "date": "2008",
            "value": 45.683853930306,
            "unit": "",
            "obs_status": "",
            "decimal": 1
        },
        {
            "indicator": {
                "id": "SL.TLF.TOTL.FE.ZS",
                "value": "Labor force, female (% of total labor force)"
            },
            "country": {
                "id": "GB",
                "value": "United Kingdom"
            },
            "countryiso3code": "GBR",
            "date": "2007",
            "value": 45.6479186804015,
            "unit": "",
            "obs_status": "",
            "decimal": 1
        },
        {
            "indicator": {
                "id": "SL.TLF.TOTL.FE.ZS",
                "value": "Labor force, female (% of total labor force)"
            },
            "country": {
                "id": "GB",
                "value": "United Kingdom"
            },
            "countryiso3code": "GBR",
            "date": "2006",
            "value": 45.7303545381858,
            "unit": "",
            "obs_status": "",
            "decimal": 1
        },
        {
            "indicator": {
                "id": "SL.TLF.TOTL.FE.ZS",
                "value": "Labor force, female (% of total labor force)"
            },
            "country": {
                "id": "GB",
                "value": "United Kingdom"
            },
            "countryiso3code": "GBR",
            "date": "2005",
            "value": 45.675598597973,
            "unit": "",
            "obs_status": "",
            "decimal": 1
        },
        {
            "indicator": {
                "id": "SL.TLF.TOTL.FE.ZS",
                "value": "Labor force, female (% of total labor force)"
            },
            "country": {
                "id": "GB",
                "value": "United Kingdom"
            },
            "countryiso3code": "GBR",
            "date": "2004",
            "value": 45.650543115555,
            "unit": "",
            "obs_status": "",
            "decimal": 1
        },
        {
            "indicator": {
                "id": "SL.TLF.TOTL.FE.ZS",
                "value": "Labor force, female (% of total labor force)"
            },
            "country": {
                "id": "GB",
                "value": "United Kingdom"
            },
            "countryiso3code": "GBR",
            "date": "2003",
            "value": 45.4040311255036,
            "unit": "",
            "obs_status": "",
            "decimal": 1
        },
        {
            "indicator": {
                "id": "SL.TLF.TOTL.FE.ZS",
                "value": "Labor force, female (% of total labor force)"
            },
            "country": {
                "id": "GB",
                "value": "United Kingdom"
            },
            "countryiso3code": "GBR",
            "date": "2002",
            "value": 45.5959567422381,
            "unit": "",
            "obs_status": "",
            "decimal": 1
        },
        {
            "indicator": {
                "id": "SL.TLF.TOTL.FE.ZS",
                "value": "Labor force, female (% of total labor force)"
            },
            "country": {
                "id": "GB",
                "value": "United Kingdom"
            },
            "countryiso3code": "GBR",
            "date": "2001",
            "value": 45.3534145677072,
            "unit": "",
            "obs_status": "",
            "decimal": 1
        },
        {
            "indicator": {
                "id": "SL.TLF.TOTL.FE.ZS",
                "value": "Labor force, female (% of total labor force)"
            },
            "country": {
                "id": "GB",
                "value": "United Kingdom"
            },
            "countryiso3code": "GBR",
            "date": "2000",
            "value": 45.2197693515352,
            "unit": "",
            "obs_status": "",
            "decimal": 1
        },
        {
            "indicator": {
                "id": "SL.TLF.TOTL.FE.ZS",
                "value": "Labor force, female (% of total labor force)"
            },
            "country": {
                "id": "GB",
                "value": "United Kingdom"
            },
            "countryiso3code": "GBR",
            "date": "1999",
            "value": 45.1057461442652,
            "unit": "",
            "obs_status": "",
            "decimal": 1
        },
        {
            "indicator": {
                "id": "SL.TLF.TOTL.FE.ZS",
                "value": "Labor force, female (% of total labor force)"
            },
            "country": {
                "id": "GB",
                "value": "United Kingdom"
            },
            "countryiso3code": "GBR",
            "date": "1998",
            "value": 44.9194441688325,
            "unit": "",
            "obs_status": "",
            "decimal": 1
        },
        {
            "indicator": {
                "id": "SL.TLF.TOTL.FE.ZS",
                "value": "Labor force, female (% of total labor force)"
            },
            "country": {
                "id": "GB",
                "value": "United Kingdom"
            },
            "countryiso3code": "GBR",
            "date": "1997",
            "value": 44.8157702356712,
            "unit": "",
            "obs_status": "",
            "decimal": 1
        },
        {
            "indicator": {
                "id": "SL.TLF.TOTL.FE.ZS",
                "value": "Labor force, female (% of total labor force)"
            },
            "country": {
                "id": "GB",
                "value": "United Kingdom"
            },
            "countryiso3code": "GBR",
            "date": "1996",
            "value": 44.5806277990741,
            "unit": "",
            "obs_status": "",
            "decimal": 1
        },
        {
            "indicator": {
                "id": "SL.TLF.TOTL.FE.ZS",
                "value": "Labor force, female (% of total labor force)"
            },
            "country": {
                "id": "GB",
                "value": "United Kingdom"
            },
            "countryiso3code": "GBR",
            "date": "1995",
            "value": 44.294669325285,
            "unit": "",
            "obs_status": "",
            "decimal": 1
        },
        {
            "indicator": {
                "id": "SL.TLF.TOTL.FE.ZS",
                "value": "Labor force, female (% of total labor force)"
            },
            "country": {
                "id": "GB",
                "value": "United Kingdom"
            },
            "countryiso3code": "GBR",
            "date": "1994",
            "value": 44.1999050309855,
            "unit": "",
            "obs_status": "",
            "decimal": 1
        },
        {
            "indicator": {
                "id": "SL.TLF.TOTL.FE.ZS",
                "value": "Labor force, female (% of total labor force)"
            },
            "country": {
                "id": "GB",
                "value": "United Kingdom"
            },
            "countryiso3code": "GBR",
            "date": "1993",
            "value": 44.0693178076977,
            "unit": "",
            "obs_status": "",
            "decimal": 1
        },
        {
            "indicator": {
                "id": "SL.TLF.TOTL.FE.ZS",
                "value": "Labor force, female (% of total labor force)"
            },
            "country": {
                "id": "GB",
                "value": "United Kingdom"
            },
            "countryiso3code": "GBR",
            "date": "1992",
            "value": 43.6402848039338,
            "unit": "",
            "obs_status": "",
            "decimal": 1
        },
        {
            "indicator": {
                "id": "SL.TLF.TOTL.FE.ZS",
                "value": "Labor force, female (% of total labor force)"
            },
            "country": {
                "id": "GB",
                "value": "United Kingdom"
            },
            "countryiso3code": "GBR",
            "date": "1991",
            "value": 43.3159904507703,
            "unit": "",
            "obs_status": "",
            "decimal": 1
        },
        {
            "indicator": {
                "id": "SL.TLF.TOTL.FE.ZS",
                "value": "Labor force, female (% of total labor force)"
            },
            "country": {
                "id": "GB",
                "value": "United Kingdom"
            },
            "countryiso3code": "GBR",
            "date": "1990",
            "value": 43.1893330428857,
            "unit": "",
            "obs_status": "",
            "decimal": 1
        },
        {
            "indicator": {
                "id": "SL.TLF.TOTL.FE.ZS",
                "value": "Labor force, female (% of total labor force)"
            },
            "country": {
                "id": "GB",
                "value": "United Kingdom"
            },
            "countryiso3code": "GBR",
            "date": "1989",
            "value": null,
            "unit": "",
            "obs_status": "",
            "decimal": 1
        },
        {
            "indicator": {
                "id": "SL.TLF.TOTL.FE.ZS",
                "value": "Labor force, female (% of total labor force)"
            },
            "country": {
                "id": "GB",
                "value": "United Kingdom"
            },
            "countryiso3code": "GBR",
            "date": "1988",
            "value": null,
            "unit": "",
            "obs_status": "",
            "decimal": 1
        },
        {
            "indicator": {
                "id": "SL.TLF.TOTL.FE.ZS",
                "value": "Labor force, female (% of total labor force)"
            },
            "country": {
                "id": "GB",
                "value": "United Kingdom"
            },
            "countryiso3code": "GBR",
            "date": "1987",
            "value": null,
            "unit": "",
            "obs_status": "",
            "decimal": 1
        },
        {
            "indicator": {
                "id": "SL.TLF.TOTL.FE.ZS",
                "value": "Labor force, female (% of total labor force)"
            },
            "country": {
                "id": "GB",
                "value": "United Kingdom"
            },
            "countryiso3code": "GBR",
            "date": "1986",
            "value": null,
            "unit": "",
            "obs_status": "",
            "decimal": 1
        },
        {
            "indicator": {
                "id": "SL.TLF.TOTL.FE.ZS",
                "value": "Labor force, female (% of total labor force)"
            },
            "country": {
                "id": "GB",
                "value": "United Kingdom"
            },
            "countryiso3code": "GBR",
            "date": "1985",
            "value": null,
            "unit": "",
            "obs_status": "",
            "decimal": 1
        },
        {
            "indicator": {
                "id": "SL.TLF.TOTL.FE.ZS",
                "value": "Labor force, female (% of total labor force)"
            },
            "country": {
                "id": "GB",
                "value": "United Kingdom"
            },
            "countryiso3code": "GBR",
            "date": "1984",
            "value": null,
            "unit": "",
            "obs_status": "",
            "decimal": 1
        },
        {
            "indicator": {
                "id": "SL.TLF.TOTL.FE.ZS",
                "value": "Labor force, female (% of total labor force)"
            },
            "country": {
                "id": "GB",
                "value": "United Kingdom"
            },
            "countryiso3code": "GBR",
            "date": "1983",
            "value": null,
            "unit": "",
            "obs_status": "",
            "decimal": 1
        },
        {
            "indicator": {
                "id": "SL.TLF.TOTL.FE.ZS",
                "value": "Labor force, female (% of total labor force)"
            },
            "country": {
                "id": "GB",
                "value": "United Kingdom"
            },
            "countryiso3code": "GBR",
            "date": "1982",
            "value": null,
            "unit": "",
            "obs_status": "",
            "decimal": 1
        },
        {
            "indicator": {
                "id": "SL.TLF.TOTL.FE.ZS",
                "value": "Labor force, female (% of total labor force)"
            },
            "country": {
                "id": "GB",
                "value": "United Kingdom"
            },
            "countryiso3code": "GBR",
            "date": "1981",
            "value": null,
            "unit": "",
            "obs_status": "",
            "decimal": 1
        },
        {
            "indicator": {
                "id": "SL.TLF.TOTL.FE.ZS",
                "value": "Labor force, female (% of total labor force)"
            },
            "country": {
                "id": "GB",
                "value": "United Kingdom"
            },
            "countryiso3code": "GBR",
            "date": "1980",
            "value": null,
            "unit": "",
            "obs_status": "",
            "decimal": 1
        },
        {
            "indicator": {
                "id": "SL.TLF.TOTL.FE.ZS",
                "value": "Labor force, female (% of total labor force)"
            },
            "country": {
                "id": "GB",
                "value": "United Kingdom"
            },
            "countryiso3code": "GBR",
            "date": "1979",
            "value": null,
            "unit": "",
            "obs_status": "",
            "decimal": 1
        },
        {
            "indicator": {
                "id": "SL.TLF.TOTL.FE.ZS",
                "value": "Labor force, female (% of total labor force)"
            },
            "country": {
                "id": "GB",
                "value": "United Kingdom"
            },
            "countryiso3code": "GBR",
            "date": "1978",
            "value": null,
            "unit": "",
            "obs_status": "",
            "decimal": 1
        },
        {
            "indicator": {
                "id": "SL.TLF.TOTL.FE.ZS",
                "value": "Labor force, female (% of total labor force)"
            },
            "country": {
                "id": "GB",
                "value": "United Kingdom"
            },
            "countryiso3code": "GBR",
            "date": "1977",
            "value": null,
            "unit": "",
            "obs_status": "",
            "decimal": 1
        },
        {
            "indicator": {
                "id": "SL.TLF.TOTL.FE.ZS",
                "value": "Labor force, female (% of total labor force)"
            },
            "country": {
                "id": "GB",
                "value": "United Kingdom"
            },
            "countryiso3code": "GBR",
            "date": "1976",
            "value": null,
            "unit": "",
            "obs_status": "",
            "decimal": 1
        },
        {
            "indicator": {
                "id": "SL.TLF.TOTL.FE.ZS",
                "value": "Labor force, female (% of total labor force)"
            },
            "country": {
                "id": "GB",
                "value": "United Kingdom"
            },
            "countryiso3code": "GBR",
            "date": "1975",
            "value": null,
            "unit": "",
            "obs_status": "",
            "decimal": 1
        },
        {
            "indicator": {
                "id": "SL.TLF.TOTL.FE.ZS",
                "value": "Labor force, female (% of total labor force)"
            },
            "country": {
                "id": "GB",
                "value": "United Kingdom"
            },
            "countryiso3code": "GBR",
            "date": "1974",
            "value": null,
            "unit": "",
            "obs_status": "",
            "decimal": 1
        },
        {
            "indicator": {
                "id": "SL.TLF.TOTL.FE.ZS",
                "value": "Labor force, female (% of total labor force)"
            },
            "country": {
                "id": "GB",
                "value": "United Kingdom"
            },
            "countryiso3code": "GBR",
            "date": "1973",
            "value": null,
            "unit": "",
            "obs_status": "",
            "decimal": 1
        },
        {
            "indicator": {
                "id": "SL.TLF.TOTL.FE.ZS",
                "value": "Labor force, female (% of total labor force)"
            },
            "country": {
                "id": "GB",
                "value": "United Kingdom"
            },
            "countryiso3code": "GBR",
            "date": "1972",
            "value": null,
            "unit": "",
            "obs_status": "",
            "decimal": 1
        },
        {
            "indicator": {
                "id": "SL.TLF.TOTL.FE.ZS",
                "value": "Labor force, female (% of total labor force)"
            },
            "country": {
                "id": "GB",
                "value": "United Kingdom"
            },
            "countryiso3code": "GBR",
            "date": "1971",
            "value": null,
            "unit": "",
            "obs_status": "",
            "decimal": 1
        }
    ]
]